{
  "type": "service_account",
  "project_id": "ceremonial-team-317607",
  "private_key_id": "7ff1b6892a93c099e53faf14dd5a2c349abc2dc0",
  "private_key": "-----BEGIN PRIVATE KEY-----\nMIIEuwIBADANBgkqhkiG9w0BAQEFAASCBKUwggShAgEAAoIBAQCXqnzmPUYx2zYh\nQMwo5xiJuFj0ckduEUHSCOSfERLAYSeUrEnlajcXk9us1IVn/7J1J7DlkPvqNGc+\nrqsNwyFqE97vfTZbhjTwipCa+tAZfHvmJmHkTmL/PIZlGnAhTy4A2HysH2Tw/ioH\nEjiyaCbrYFL4qSv60fxvlkqMmVR6+OnQZuwQ94Q4BnoyA3GmRXn8YNc8BcFeGWQK\nTkUairJSegkWhdCAXfg+NXnPhFaLOYBj7aFZHSJJCKUGcuxIP03jGuPUOeqdC+KT\nBznObeqSZR9swsKst4iRRAVrP4ef+lPH3SDEprWruwDXG20vVOMZRBFK8/gWUJzm\ndgoa+j23AgMBAAECgf8h+21c9fdTw8o0JBM0ITdeSBjZjeA15/nhuY0FSj6r5nUM\nX/SApe+yJYN5c4DrjwMRKHdbnGhajIIGQcCMxX3V4GB5mopV936x699HfjLQeNZ9\nNcp72AoteBqQT0exyIbYJIrU52cSwTxDEaknl/EgeiLA8Jdk99DLG1x6D8x3l+tg\ngMrXvtkProOPmad0goJuhBcJlC3C0+5jr9V5hu0U8R0dSDB5xp6DvgVhoJWW2N2r\n1fRxbvzvHkxxvO4Xnd1WbhAkouEStYF81TQ09bX0SqnrXIFqZIqpou4/Zxt9hSOs\nne+WNk3sowCTD2r+c16WVYB+K8aQccHQO5uscNECgYEA0TEf0GwynGzX1f897MSQ\nTSVojpHCo+QEHnPMST7yMpWADphVg+qc231+vPlJ2VJrIqJ8xyDbYBRgPlI7Cs8m\nIolcgrW7oYjlX/10DW4SOZdKZltu+IZqNFhxnCGl2GiatG4ugHd24jm+nQkTB6R5\nllKHWqX/gRWuuKk2algUizsCgYEAuZott2CsOM/1oBSgrSi95vEZTYPAXXo7a7br\nB3Rn7/0emGl/0FgkIBkTUhCRZ15VcIH4Diy0aLuAn6P855YUAZogBxYEQXMtNagO\n1lSPHbocmzSQBM6+s9dEse1sXK5TLAzvNKLuQjvMsfKHibgSzgkK3XE3GtE8INt2\nsPW8l7UCgYBR6lmZ5PSAmoJ+Mt/N2j7jZrWltmAwizYtsoyZVgPDWRV3IaHC8VkQ\n/fhmCXwolISNYHFaDHy7B9+UJ+Ek328AcSd/q6hYneGsD/Sk2ahbUun4YO94dDIc\nY1HBoM9via6i3s5o0d8EwTXqCkagZICUI6cLERuXMaVkfCZpyCnrRwKBgDqiWo70\nG3RXPmG0Io6RsGyk/jlexgbB9sOwpc9VFwDaFjBQI/DN55u8UD48vbLKOnOwm4ze\n0p/DnH7Sb7M51lgrOLMEYZPLrxykWwua6xuZEDB4Cod6SQTHnQwY1YLyD5R7AZa/\nYkXKXoBY/jijzk0IzkXm3mG6eCRpMLX26/2BAoGBAKlkRmIItOUjw0otT2RBvvP3\nW/ZUd4v1WYf6HG5EApy1f9R8A3DwcD9BWxeiVp+Jm4bGOyVQpG1gWP1/Bpv/X+W2\nuSLaSrmQuZ2NKTqheR/cete7mnqcjnxq752krgQcVppcHhublZoPUGg0HAhsgcDr\nsuioFOXWb6fXK4LUJhJQ\n-----END PRIVATE KEY-----\n",
  "client_email": "google-api-1@ceremonial-team-317607.iam.gserviceaccount.com",
  "client_id": "108768840089986046398",
  "auth_uri": "https://accounts.google.com/o/oauth2/auth",
  "token_uri": "https://oauth2.googleapis.com/token",
  "auth_provider_x509_cert_url": "https://www.googleapis.com/oauth2/v1/certs",
  "client_x509_cert_url": "https://www.googleapis.com/robot/v1/metadata/x509/google-api-1%40ceremonial-team-317607.iam.gserviceaccount.com"
}
