{
    "/js/theme-web.js": "/js/theme-web.js?id=787f3f47a2b048a7424f",
    "/css/products.css": "/css/products.css?id=bce753f8bc93b2b01fd6",
    "/css/web-app.css": "/css/web-app.css?id=a4eb37f3ff05f4052dc0",
    "/js/web.js": "/js/web.js?id=df819748feab8e80d349",
    "/css/web.css": "/css/web.css?id=5bbf43fb0519e9e26837",
    "/js/backend.js": "/js/backend.js?id=78dba2faa6805d6d468b",
    "/css/app.css": "/css/app.css?id=78649dd3221b3f4301d2",
    "/css/mystyle.css": "/css/mystyle.css?id=37d41cce3434cfabf8eb",
    "/js/app.js": "/js/app.js?id=f4c6dcc96849a7ab1c86",
    "/css/all.css": "/css/all.css?id=a776f4c465b0dedc9ba9"
}
